{
  "response":{
    "status":"ok",
    "userTier":"free",
    "total":20733,
    "startIndex":1,
    "pageSize":2,
    "currentPage":1,
    "pages":10367,
    "results":[{
      "id":"enjoy-england/south-west",
      "type":"keyword",
      "webTitle":"South-west",
      "webUrl":"http://www.guardian.co.uk/enjoy-england/south-west",
      "apiUrl":"http://content.guardianapis.com/enjoy-england/south-west",
      "sectionId":"enjoy-england",
      "sectionName":"Enjoy England"
    },{
      "id":"profile/dick-vinegar",
      "type":"contributor",
      "webTitle":"Dick Vinegar",
      "webUrl":"http://www.guardian.co.uk/profile/dick-vinegar",
      "apiUrl":"http://content.guardianapis.com/profile/dick-vinegar"
    }]
  }
}