{
  "response":{
    "status":"ok",
    "userTier":"free",
    "total":1142,
    "startIndex":1,
    "pageSize":2,
    "currentPage":1,
    "pages":571,
    "results":[{
      "id":"folder/traveleditorsindex/travelawards",
      "webTitle":"Travel awards",
      "apiUrl":"http://content.guardianapis.com/folder/traveleditorsindex/travelawards",
      "sectionId":"travel",
      "sectionName":"Travel"
    },{
      "id":"folder/test2editorsindex/test2folder",
      "webTitle":"test2",
      "apiUrl":"http://content.guardianapis.com/folder/test2editorsindex/test2folder",
      "sectionId":"test2",
      "sectionName":"test2"
    }]
  }
}
