{
  "response":{
    "status":"ok",
    "userTier":"free",
    "total":19924,
    "startIndex":1,
    "pageSize":10,
    "currentPage":1,
    "pages":1993,
    "orderBy":"newest",
    "tag":{
      "id":"world/iraq",
      "type":"keyword",
      "webTitle":"Iraq",
      "webUrl":"http://www.theguardian.com/world/iraq",
      "apiUrl":"http://content.guardianapis.com/world/iraq",
      "sectionId":"world",
      "sectionName":"World news"
    },
    "results":[{
      "id":"world/2012/apr/20/usa-today-smear-campaign",
      "sectionId":"world",
      "sectionName":"World news",
      "webPublicationDate":"2012-04-20T14:58:00Z",
      "webTitle":"USA Today pair hit by smear campaign after Pentagon propaganda story",
      "webUrl":"http://www.theguardian.com/world/2012/apr/20/usa-today-smear-campaign",
      "apiUrl":"http://content.guardianapis.com/world/2012/apr/20/usa-today-smear-campaign"
    },{
      "id":"world/2012/apr/19/deadly-bomb-blasts-baghdad-kirkuk",
      "sectionId":"world",
      "sectionName":"World news",
      "webPublicationDate":"2012-04-19T11:14:00Z",
      "webTitle":"Iraqi cities hit by deadly bomb blasts",
      "webUrl":"http://www.theguardian.com/world/2012/apr/19/deadly-bomb-blasts-baghdad-kirkuk",
      "apiUrl":"http://content.guardianapis.com/world/2012/apr/19/deadly-bomb-blasts-baghdad-kirkuk",
      "isExpired": "true"
    },{
      "id":"commentisfree/cifamerica/2012/apr/16/tarek-mehanna-punished-speaking-truth",
      "sectionId":"commentisfree",
      "sectionName":"Comment is free",
      "webPublicationDate":"2012-04-16T15:27:19Z",
      "webTitle":"Tarek Mehanna: punished for speaking truth to power | Ross Caputi",
      "webUrl":"http://www.theguardian.com/commentisfree/cifamerica/2012/apr/16/tarek-mehanna-punished-speaking-truth",
      "apiUrl":"http://content.guardianapis.com/commentisfree/cifamerica/2012/apr/16/tarek-mehanna-punished-speaking-truth"
    },{
      "id":"commentisfree/2012/apr/10/iraqi-sectarianism-shia-sunni-muslims",
      "sectionId":"commentisfree",
      "sectionName":"Comment is free",
      "webPublicationDate":"2012-04-10T09:00:02Z",
      "webTitle":"Iraqi sectarianism needs reporting, but not like Associated Press did | Hayder al-Khoei",
      "webUrl":"http://www.theguardian.com/commentisfree/2012/apr/10/iraqi-sectarianism-shia-sunni-muslims",
      "apiUrl":"http://content.guardianapis.com/commentisfree/2012/apr/10/iraqi-sectarianism-shia-sunni-muslims"
    },{
      "id":"world/2012/apr/08/pope-syrian-regime-easter-message",
      "sectionId":"world",
      "sectionName":"World news",
      "webPublicationDate":"2012-04-08T13:04:03Z",
      "webTitle":"Pope implores Syrian regime to end bloodshed in Easter message",
      "webUrl":"http://www.theguardian.com/world/2012/apr/08/pope-syrian-regime-easter-message",
      "apiUrl":"http://content.guardianapis.com/world/2012/apr/08/pope-syrian-regime-easter-message"
    },{
      "id":"world/2012/apr/08/fugitive-saddam-hussein-aide-video",
      "sectionId":"world",
      "sectionName":"World news",
      "webPublicationDate":"2012-04-08T00:33:20Z",
      "webTitle":"'Fugitive Saddam Hussein aide' appears in video attacking Iraqi government",
      "webUrl":"http://www.theguardian.com/world/2012/apr/08/fugitive-saddam-hussein-aide-video",
      "apiUrl":"http://content.guardianapis.com/world/2012/apr/08/fugitive-saddam-hussein-aide-video"
    },{
      "id":"commentisfree/2012/apr/03/in-defence-of-iraq-syndrome",
      "sectionId":"commentisfree",
      "sectionName":"Comment is free",
      "webPublicationDate":"2012-04-03T10:15:00Z",
      "webTitle":"In defence of 'Iraq syndrome': liberal values never drive intervention | David Wearing",
      "webUrl":"http://www.theguardian.com/commentisfree/2012/apr/03/in-defence-of-iraq-syndrome",
      "apiUrl":"http://content.guardianapis.com/commentisfree/2012/apr/03/in-defence-of-iraq-syndrome"
    },{
      "id":"world/middle-east-live/2012/apr/02/syria-rebel-funding-agreement-live",
      "sectionId":"world",
      "sectionName":"World news",
      "webPublicationDate":"2012-04-02T15:22:00Z",
      "webTitle":"Syria crisis: Friends of Syria agree funding for rebels - Monday 2 April 2012",
      "webUrl":"http://www.theguardian.com/world/middle-east-live/2012/apr/02/syria-rebel-funding-agreement-live",
      "apiUrl":"http://content.guardianapis.com/world/middle-east-live/2012/apr/02/syria-rebel-funding-agreement-live"
    },{
      "id":"world/2012/apr/02/iraq-qatar-hashemi-shahristani-baghdad",
      "sectionId":"world",
      "sectionName":"World news",
      "webPublicationDate":"2012-04-02T13:43:55Z",
      "webTitle":"Iraq berates Qatar for hosting runaway Sunni vice-president Hashemi",
      "webUrl":"http://www.theguardian.com/world/2012/apr/02/iraq-qatar-hashemi-shahristani-baghdad",
      "apiUrl":"http://content.guardianapis.com/world/2012/apr/02/iraq-qatar-hashemi-shahristani-baghdad"
    },{
      "id":"world/2012/apr/01/tariq-al-ashemi-travels-to-qatar",
      "sectionId":"world",
      "sectionName":"World news",
      "webPublicationDate":"2012-04-01T18:57:56Z",
      "webTitle":"Fugitive Iraqi vice-president Tariq al-Hashemi travels to Qatar",
      "webUrl":"http://www.theguardian.com/world/2012/apr/01/tariq-al-ashemi-travels-to-qatar",
      "apiUrl":"http://content.guardianapis.com/world/2012/apr/01/tariq-al-ashemi-travels-to-qatar"
    }],
    "leadContent":[{
      "id":"world/2012/apr/19/deadly-bomb-blasts-baghdad-kirkuk",
      "sectionId":"world",
      "sectionName":"World news",
      "webPublicationDate":"2012-04-19T11:14:00Z",
      "webTitle":"Iraqi cities hit by deadly bomb blasts",
      "webUrl":"http://www.theguardian.com/world/2012/apr/19/deadly-bomb-blasts-baghdad-kirkuk",
      "apiUrl":"http://content.guardianapis.com/world/2012/apr/19/deadly-bomb-blasts-baghdad-kirkuk"
    },{
      "id":"world/2012/apr/08/fugitive-saddam-hussein-aide-video",
      "sectionId":"world",
      "sectionName":"World news",
      "webPublicationDate":"2012-04-08T00:33:20Z",
      "webTitle":"'Fugitive Saddam Hussein aide' appears in video attacking Iraqi government",
      "webUrl":"http://www.theguardian.com/world/2012/apr/08/fugitive-saddam-hussein-aide-video",
      "apiUrl":"http://content.guardianapis.com/world/2012/apr/08/fugitive-saddam-hussein-aide-video"
    },{
      "id":"world/2012/mar/20/iraq-bombs-kill-dozens",
      "sectionId":"world",
      "sectionName":"World news",
      "webPublicationDate":"2012-03-20T15:44:00Z",
      "webTitle":"Iraq bombs kill scores before Arab League summit",
      "webUrl":"http://www.theguardian.com/world/2012/mar/20/iraq-bombs-kill-dozens",
      "apiUrl":"http://content.guardianapis.com/world/2012/mar/20/iraq-bombs-kill-dozens"
    },{
      "id":"world/2012/mar/05/al-qaida-kill-25-iraqi-police-officers",
      "sectionId":"world",
      "sectionName":"World news",
      "webPublicationDate":"2012-03-05T07:44:18Z",
      "webTitle":"Al-Qaida kill 25 Iraqi police officers",
      "webUrl":"http://www.theguardian.com/world/2012/mar/05/al-qaida-kill-25-iraqi-police-officers",
      "apiUrl":"http://content.guardianapis.com/world/2012/mar/05/al-qaida-kill-25-iraqi-police-officers"
    },{
      "id":"world/2012/feb/23/baghdad-attacks-target-iraqi-police",
      "sectionId":"world",
      "sectionName":"World news",
      "webPublicationDate":"2012-02-23T16:32:00Z",
      "webTitle":"Iraq attacks kill at least 55 people",
      "webUrl":"http://www.theguardian.com/world/2012/feb/23/baghdad-attacks-target-iraqi-police",
      "apiUrl":"http://content.guardianapis.com/world/2012/feb/23/baghdad-attacks-target-iraqi-police"
    },{
      "id":"world/2012/feb/09/iraq-executes-65-people-2012",
      "sectionId":"world",
      "sectionName":"World news",
      "webPublicationDate":"2012-02-09T10:47:57Z",
      "webTitle":"Iraq has executed 65 people so far this year",
      "webUrl":"http://www.theguardian.com/world/2012/feb/09/iraq-executes-65-people-2012",
      "apiUrl":"http://content.guardianapis.com/world/2012/feb/09/iraq-executes-65-people-2012"
    },{
      "id":"world/2012/jan/27/iraq-car-bomber-kills-26",
      "sectionId":"world",
      "sectionName":"World news",
      "webPublicationDate":"2012-01-27T23:33:00Z",
      "webTitle":"Iraq suicide bomber kills dozens",
      "webUrl":"http://www.theguardian.com/world/2012/jan/27/iraq-car-bomber-kills-26",
      "apiUrl":"http://content.guardianapis.com/world/2012/jan/27/iraq-car-bomber-kills-26"
    },{
      "id":"world/2012/jan/26/iraq-insurgents-bomb-police-officers",
      "sectionId":"world",
      "sectionName":"World news",
      "webPublicationDate":"2012-01-26T08:39:00Z",
      "webTitle":"Iraqi insurgents bomb family home of police officers",
      "webUrl":"http://www.theguardian.com/world/2012/jan/26/iraq-insurgents-bomb-police-officers",
      "apiUrl":"http://content.guardianapis.com/world/2012/jan/26/iraq-insurgents-bomb-police-officers"
    },{
      "id":"world/2012/jan/25/us-marine-haditha-case-spared-jail",
      "sectionId":"world",
      "sectionName":"World news",
      "webPublicationDate":"2012-01-25T02:43:00Z",
      "webTitle":"US marine spared jail over deaths of unarmed Iraqis",
      "webUrl":"http://www.theguardian.com/world/2012/jan/25/us-marine-haditha-case-spared-jail",
      "apiUrl":"http://content.guardianapis.com/world/2012/jan/25/us-marine-haditha-case-spared-jail"
    },{
      "id":"world/2012/jan/24/fatal-car-bombs-hit-baghdad",
      "sectionId":"world",
      "sectionName":"World news",
      "webPublicationDate":"2012-01-24T08:31:21Z",
      "webTitle":"Fatal car bombs hit Baghdad",
      "webUrl":"http://www.theguardian.com/world/2012/jan/24/fatal-car-bombs-hit-baghdad",
      "apiUrl":"http://content.guardianapis.com/world/2012/jan/24/fatal-car-bombs-hit-baghdad"
    }]
  }
}