{
    "response": {
        "status": "ok",
        "userTier": "internal",
        "total": 94450,
        "startIndex": 1,
        "pageSize": 10,
        "currentPage": 1,
        "pages": 9445,
        "edition": {
            "id": "commentisfree",
            "webTitle": "Comment is free",
            "code": "default",
            "webUrl": "http://www.theguardian.com/commentisfree",
            "apiUrl": "http://content.guardianapis.com/commentisfree"
        },
        "section": {
            "id": "commentisfree",
            "webTitle": "Comment is free",
            "webUrl": "http://www.theguardian.com/commentisfree",
            "apiUrl": "http://content.guardianapis.com/commentisfree",
            "editions": [
                {
                    "id": "commentisfree",
                    "webTitle": "Comment is free",
                    "code": "default",
                    "webUrl": "http://www.theguardian.com/commentisfree",
                    "apiUrl": "http://content.guardianapis.com/commentisfree"
                },
                {
                    "id": "uk/commentisfree",
                    "webTitle": "Comment is free",
                    "code": "uk",
                    "webUrl": "http://www.theguardian.com/uk/commentisfree",
                    "apiUrl": "http://content.guardianapis.com/uk/commentisfree"
                },
                {
                    "id": "us/commentisfree",
                    "webTitle": "Comment is free",
                    "code": "us",
                    "webUrl": "http://www.theguardian.com/us/commentisfree",
                    "apiUrl": "http://content.guardianapis.com/us/commentisfree"
                },
                {
                    "id": "au/commentisfree",
                    "webTitle": "Comment is free",
                    "code": "au",
                    "webUrl": "http://www.theguardian.com/au/commentisfree",
                    "apiUrl": "http://content.guardianapis.com/au/commentisfree"
                }
            ]
        },
        "results": [
            {
                "webTitle": "Hear Labour’s new rallying cry: power to the people | Neal Lawson",
                "webPublicationDate": "2014-09-11T09:30:00Z",
                "sectionName": "Comment is free",
                "sectionId": "commentisfree",
                "id": "commentisfree/2014/sep/11/labour-one-nation-britain-politics",
                "webUrl": "http://www.theguardian.com/commentisfree/2014/sep/11/labour-one-nation-britain-politics",
                "apiUrl": "http://content.guardianapis.com/commentisfree/2014/sep/11/labour-one-nation-britain-politics"
            },
            {
                "webTitle": "The sad legacy of 9/11: Isis and al-Qaida are stronger than ever | Ali Soufan",
                "webPublicationDate": "2014-09-11T09:15:06Z",
                "sectionName": "Comment is free",
                "sectionId": "commentisfree",
                "id": "commentisfree/2014/sep/11/-sp-9-11-isis-al-qaida-13-years",
                "webUrl": "http://www.theguardian.com/commentisfree/2014/sep/11/-sp-9-11-isis-al-qaida-13-years",
                "apiUrl": "http://content.guardianapis.com/commentisfree/2014/sep/11/-sp-9-11-isis-al-qaida-13-years"
            },
            {
                "webTitle": "Scottish independence: Female voices have swung women towards a yes vote | Lesley Riddoch",
                "webPublicationDate": "2014-09-11T09:06:06Z",
                "sectionName": "Comment is free",
                "sectionId": "commentisfree",
                "id": "commentisfree/2014/sep/11/scottish-independence-female-voices-women-yes-vote",
                "webUrl": "http://www.theguardian.com/commentisfree/2014/sep/11/scottish-independence-female-voices-women-yes-vote",
                "apiUrl": "http://content.guardianapis.com/commentisfree/2014/sep/11/scottish-independence-female-voices-women-yes-vote"
            },
            {
                "webTitle": "How Ukip’s support has been evolving after the European elections | Matthew Goodwin",
                "webPublicationDate": "2014-09-11T08:00:57Z",
                "sectionName": "Comment is free",
                "sectionId": "commentisfree",
                "id": "commentisfree/2014/sep/11/ukip-european-elections-british-election-study",
                "webUrl": "http://www.theguardian.com/commentisfree/2014/sep/11/ukip-european-elections-british-election-study",
                "apiUrl": "http://content.guardianapis.com/commentisfree/2014/sep/11/ukip-european-elections-british-election-study"
            },
            {
                "webTitle": "High court verdict spells the end for Australian immigration detention as we know it | Joyce Chia",
                "webPublicationDate": "2014-09-11T07:00:27Z",
                "sectionName": "Comment is free",
                "sectionId": "commentisfree",
                "id": "commentisfree/2014/sep/11/high-court-verdict-spells-the-end-for-australian-immigration-detention-as-we-know-it",
                "webUrl": "http://www.theguardian.com/commentisfree/2014/sep/11/high-court-verdict-spells-the-end-for-australian-immigration-detention-as-we-know-it",
                "apiUrl": "http://content.guardianapis.com/commentisfree/2014/sep/11/high-court-verdict-spells-the-end-for-australian-immigration-detention-as-we-know-it"
            },
            {
                "webTitle": "As in Scotland, so in Catalonia | Xavier Trias",
                "webPublicationDate": "2014-09-11T07:00:03Z",
                "sectionName": "Comment is free",
                "sectionId": "commentisfree",
                "id": "commentisfree/2014/sep/11/scotland-catalonia-scottish-referendum-vote-madrid-barcelona",
                "webUrl": "http://www.theguardian.com/commentisfree/2014/sep/11/scotland-catalonia-scottish-referendum-vote-madrid-barcelona",
                "apiUrl": "http://content.guardianapis.com/commentisfree/2014/sep/11/scotland-catalonia-scottish-referendum-vote-madrid-barcelona"
            },
            {
                "webTitle": "Steve Bell's If ... on when Scotland's free of England's yoke",
                "webPublicationDate": "2014-09-11T07:00:00Z",
                "sectionName": "Comment is free",
                "sectionId": "commentisfree",
                "id": "commentisfree/cartoon/2014/sep/11/steve-bell-if-scotland-free-alex-salmond",
                "webUrl": "http://www.theguardian.com/commentisfree/cartoon/2014/sep/11/steve-bell-if-scotland-free-alex-salmond",
                "apiUrl": "http://content.guardianapis.com/commentisfree/cartoon/2014/sep/11/steve-bell-if-scotland-free-alex-salmond"
            },
            {
                "webTitle": "Salmond’s Scotland won’t be an escape from Tory Britain | Seumas Milne",
                "webPublicationDate": "2014-09-11T05:00:02Z",
                "sectionName": "Comment is free",
                "sectionId": "commentisfree",
                "id": "commentisfree/2014/sep/11/salmond-scotland-no-escape-tory-britain",
                "webUrl": "http://www.theguardian.com/commentisfree/2014/sep/11/salmond-scotland-no-escape-tory-britain",
                "apiUrl": "http://content.guardianapis.com/commentisfree/2014/sep/11/salmond-scotland-no-escape-tory-britain"
            },
            {
                "webTitle": "So your a pedant? It's nothing to be proud of | Bridie Jabour",
                "webPublicationDate": "2014-09-11T03:51:28Z",
                "sectionName": "Comment is free",
                "sectionId": "commentisfree",
                "id": "commentisfree/2014/sep/11/are-you-the-next-pedant-in-chief-prove-it",
                "webUrl": "http://www.theguardian.com/commentisfree/2014/sep/11/are-you-the-next-pedant-in-chief-prove-it",
                "apiUrl": "http://content.guardianapis.com/commentisfree/2014/sep/11/are-you-the-next-pedant-in-chief-prove-it"
            },
            {
                "webTitle": "From the 'paperless office' to renewable energy, change leaves its critics behind | John Quiggin",
                "webPublicationDate": "2014-09-11T03:15:39Z",
                "sectionName": "Comment is free",
                "sectionId": "commentisfree",
                "id": "commentisfree/2014/sep/11/from-the-paperless-office-to-renewable-energy-change-leaves-its-critics-behind",
                "webUrl": "http://www.theguardian.com/commentisfree/2014/sep/11/from-the-paperless-office-to-renewable-energy-change-leaves-its-critics-behind",
                "apiUrl": "http://content.guardianapis.com/commentisfree/2014/sep/11/from-the-paperless-office-to-renewable-energy-change-leaves-its-critics-behind"
            }
        ],
        "mostViewed": [
            {
                "webTitle": "High court verdict spells the end for Australian immigration detention as we know it | Joyce Chia",
                "webPublicationDate": "2014-09-11T07:00:27Z",
                "sectionName": "Comment is free",
                "sectionId": "commentisfree",
                "id": "commentisfree/2014/sep/11/high-court-verdict-spells-the-end-for-australian-immigration-detention-as-we-know-it",
                "webUrl": "http://www.theguardian.com/commentisfree/2014/sep/11/high-court-verdict-spells-the-end-for-australian-immigration-detention-as-we-know-it",
                "apiUrl": "http://content.guardianapis.com/commentisfree/2014/sep/11/high-court-verdict-spells-the-end-for-australian-immigration-detention-as-we-know-it"
            },
            {
                "webTitle": "So your a pedant? It's nothing to be proud of | Bridie Jabour",
                "webPublicationDate": "2014-09-11T03:51:28Z",
                "sectionName": "Comment is free",
                "sectionId": "commentisfree",
                "id": "commentisfree/2014/sep/11/are-you-the-next-pedant-in-chief-prove-it",
                "webUrl": "http://www.theguardian.com/commentisfree/2014/sep/11/are-you-the-next-pedant-in-chief-prove-it",
                "apiUrl": "http://content.guardianapis.com/commentisfree/2014/sep/11/are-you-the-next-pedant-in-chief-prove-it"
            },
            {
                "webTitle": "Apple Pay is a really cool way to drain your entire bank account | Oliver Burkeman",
                "webPublicationDate": "2014-09-11T11:49:23Z",
                "sectionName": "Comment is free",
                "sectionId": "commentisfree",
                "id": "commentisfree/oliver-burkeman-column/2014/sep/11/apple-pay-bank-account-iphone-payment-technology",
                "webUrl": "http://www.theguardian.com/commentisfree/oliver-burkeman-column/2014/sep/11/apple-pay-bank-account-iphone-payment-technology",
                "apiUrl": "http://content.guardianapis.com/commentisfree/oliver-burkeman-column/2014/sep/11/apple-pay-bank-account-iphone-payment-technology"
            },
            {
                "webTitle": "If you think men should help decide if a woman gets an abortion, just shut up | Jessica Valenti",
                "webPublicationDate": "2014-09-11T11:30:11Z",
                "sectionName": "Comment is free",
                "sectionId": "commentisfree",
                "id": "commentisfree/2014/sep/11/men-help-decide-woman-abortion",
                "webUrl": "http://www.theguardian.com/commentisfree/2014/sep/11/men-help-decide-woman-abortion",
                "apiUrl": "http://content.guardianapis.com/commentisfree/2014/sep/11/men-help-decide-woman-abortion"
            },
            {
                "webTitle": "Salmond’s Scotland won’t be an escape from Tory Britain | Seumas Milne",
                "webPublicationDate": "2014-09-11T05:00:02Z",
                "sectionName": "Comment is free",
                "sectionId": "commentisfree",
                "id": "commentisfree/2014/sep/11/salmond-scotland-no-escape-tory-britain",
                "webUrl": "http://www.theguardian.com/commentisfree/2014/sep/11/salmond-scotland-no-escape-tory-britain",
                "apiUrl": "http://content.guardianapis.com/commentisfree/2014/sep/11/salmond-scotland-no-escape-tory-britain"
            },
            {
                "webTitle": "The Great Naked Celebrity Photo Leak of 2014 is just the beginning | Roxane Gay",
                "webPublicationDate": "2014-09-04T12:30:58Z",
                "sectionName": "Comment is free",
                "sectionId": "commentisfree",
                "id": "commentisfree/2014/sep/01/celebrity-naked-photo-leak-2014-nude-women",
                "webUrl": "http://www.theguardian.com/commentisfree/2014/sep/01/celebrity-naked-photo-leak-2014-nude-women",
                "apiUrl": "http://content.guardianapis.com/commentisfree/2014/sep/01/celebrity-naked-photo-leak-2014-nude-women"
            },
            {
                "webTitle": "Google has sleep pods, Yelp has beer – why don’t we just live at work? | Michael Moran",
                "webPublicationDate": "2014-09-11T10:57:13Z",
                "sectionName": "Comment is free",
                "sectionId": "commentisfree",
                "id": "commentisfree/2014/sep/11/google-sleep-pods-yelp-beer-work-leisure-offices",
                "webUrl": "http://www.theguardian.com/commentisfree/2014/sep/11/google-sleep-pods-yelp-beer-work-leisure-offices",
                "apiUrl": "http://content.guardianapis.com/commentisfree/2014/sep/11/google-sleep-pods-yelp-beer-work-leisure-offices"
            },
            {
                "webTitle": "Why it’s so much harder to think like a Conservative | Roger Scruton",
                "webPublicationDate": "2014-09-10T18:09:46Z",
                "sectionName": "Comment is free",
                "sectionId": "commentisfree",
                "id": "commentisfree/2014/sep/10/why-its-harder-to-think-like-a-conservative",
                "webUrl": "http://www.theguardian.com/commentisfree/2014/sep/10/why-its-harder-to-think-like-a-conservative",
                "apiUrl": "http://content.guardianapis.com/commentisfree/2014/sep/10/why-its-harder-to-think-like-a-conservative"
            },
            {
                "webTitle": "The meaning of 9/11's most controversial photo | Jonathan Jones",
                "webPublicationDate": "2011-09-02T12:47:33Z",
                "sectionName": "Comment is free",
                "sectionId": "commentisfree",
                "id": "commentisfree/2011/sep/02/911-photo-thomas-hoepker-meaning",
                "webUrl": "http://www.theguardian.com/commentisfree/2011/sep/02/911-photo-thomas-hoepker-meaning",
                "apiUrl": "http://content.guardianapis.com/commentisfree/2011/sep/02/911-photo-thomas-hoepker-meaning"
            },
            {
                "webTitle": "Don't watch the Ray Rice video. Don't ask why Janay Palmer married him. Ask why anyone would blame a victim | Hannah Giorgis",
                "webPublicationDate": "2014-09-08T20:20:13Z",
                "sectionName": "Comment is free",
                "sectionId": "commentisfree",
                "id": "commentisfree/2014/sep/08/ray-rice-domestic-violence-video-janay-palmer-victim-blaming",
                "webUrl": "http://www.theguardian.com/commentisfree/2014/sep/08/ray-rice-domestic-violence-video-janay-palmer-victim-blaming",
                "apiUrl": "http://content.guardianapis.com/commentisfree/2014/sep/08/ray-rice-domestic-violence-video-janay-palmer-victim-blaming"
            },
            {
                "webTitle": "A yes vote in Scotland would unleash the most dangerous thing of all - hope | George Monbiot",
                "webPublicationDate": "2014-09-09T17:58:46Z",
                "sectionName": "Comment is free",
                "sectionId": "commentisfree",
                "id": "commentisfree/2014/sep/09/yes-vote-in-scotland-most-dangerous-thing-of-all-hope",
                "webUrl": "http://www.theguardian.com/commentisfree/2014/sep/09/yes-vote-in-scotland-most-dangerous-thing-of-all-hope",
                "apiUrl": "http://content.guardianapis.com/commentisfree/2014/sep/09/yes-vote-in-scotland-most-dangerous-thing-of-all-hope"
            },
            {
                "webTitle": "First Dog on the Moon on ... how to upset a billionaire - cartoon",
                "webPublicationDate": "2014-09-11T03:00:00Z",
                "sectionName": "Comment is free",
                "sectionId": "commentisfree",
                "id": "commentisfree/cartoon/2014/sep/11/dog-billionaire",
                "webUrl": "http://www.theguardian.com/commentisfree/cartoon/2014/sep/11/dog-billionaire",
                "apiUrl": "http://content.guardianapis.com/commentisfree/cartoon/2014/sep/11/dog-billionaire"
            },
            {
                "webTitle": "How Obama can really defeat Isis in Syria, Iraq and beyond | James Stavridis, Michael D Barbero and Paul D Eaton",
                "webPublicationDate": "2014-09-10T17:21:35Z",
                "sectionName": "Comment is free",
                "sectionId": "commentisfree",
                "id": "commentisfree/2014/sep/10/-sp-obama-fight-isis-syria-iraq-generals",
                "webUrl": "http://www.theguardian.com/commentisfree/2014/sep/10/-sp-obama-fight-isis-syria-iraq-generals",
                "apiUrl": "http://content.guardianapis.com/commentisfree/2014/sep/10/-sp-obama-fight-isis-syria-iraq-generals"
            },
            {
                "webTitle": "Scottish independence: Female voices have swung women towards a yes vote | Lesley Riddoch",
                "webPublicationDate": "2014-09-11T09:06:06Z",
                "sectionName": "Comment is free",
                "sectionId": "commentisfree",
                "id": "commentisfree/2014/sep/11/scottish-independence-female-voices-women-yes-vote",
                "webUrl": "http://www.theguardian.com/commentisfree/2014/sep/11/scottish-independence-female-voices-women-yes-vote",
                "apiUrl": "http://content.guardianapis.com/commentisfree/2014/sep/11/scottish-independence-female-voices-women-yes-vote"
            },
            {
                "webTitle": "The American fear-mongering machine is about to scare us back into war again | Trevor Timm",
                "webPublicationDate": "2014-09-10T11:00:10Z",
                "sectionName": "Comment is free",
                "sectionId": "commentisfree",
                "id": "commentisfree/2014/sep/10/american-fear-mongering-war-again-isis",
                "webUrl": "http://www.theguardian.com/commentisfree/2014/sep/10/american-fear-mongering-war-again-isis",
                "apiUrl": "http://content.guardianapis.com/commentisfree/2014/sep/10/american-fear-mongering-war-again-isis"
            },
            {
                "webTitle": "The sad legacy of 9/11: Isis and al-Qaida are stronger than ever | Ali Soufan",
                "webPublicationDate": "2014-09-11T09:15:06Z",
                "sectionName": "Comment is free",
                "sectionId": "commentisfree",
                "id": "commentisfree/2014/sep/11/-sp-9-11-isis-al-qaida-13-years",
                "webUrl": "http://www.theguardian.com/commentisfree/2014/sep/11/-sp-9-11-isis-al-qaida-13-years",
                "apiUrl": "http://content.guardianapis.com/commentisfree/2014/sep/11/-sp-9-11-isis-al-qaida-13-years"
            },
            {
                "webTitle": "Steve Bell on John Major and Scottish independence – cartoon",
                "webPublicationDate": "2014-09-10T21:10:46Z",
                "sectionName": "Comment is free",
                "sectionId": "commentisfree",
                "id": "commentisfree/cartoon/2014/sep/10/steve-bell-cartoon-scottish-independence-john-major-referendum",
                "webUrl": "http://www.theguardian.com/commentisfree/cartoon/2014/sep/10/steve-bell-cartoon-scottish-independence-john-major-referendum",
                "apiUrl": "http://content.guardianapis.com/commentisfree/cartoon/2014/sep/10/steve-bell-cartoon-scottish-independence-john-major-referendum"
            },
            {
                "webTitle": "Comparing fat-shaming to racism is lazy and won’t help | Lola Okolosie",
                "webPublicationDate": "2014-09-11T12:19:48Z",
                "sectionName": "Comment is free",
                "sectionId": "commentisfree",
                "id": "commentisfree/2014/sep/11/fat-shaming-racism-lazy-prejudices",
                "webUrl": "http://www.theguardian.com/commentisfree/2014/sep/11/fat-shaming-racism-lazy-prejudices",
                "apiUrl": "http://content.guardianapis.com/commentisfree/2014/sep/11/fat-shaming-racism-lazy-prejudices"
            },
            {
                "webTitle": "The SNP have become Scotland’s Pollyannas | Carol Craig",
                "webPublicationDate": "2014-09-10T17:00:18Z",
                "sectionName": "Comment is free",
                "sectionId": "commentisfree",
                "id": "commentisfree/2014/sep/10/scotland-yes-campaign-snp-pollyannas",
                "webUrl": "http://www.theguardian.com/commentisfree/2014/sep/10/scotland-yes-campaign-snp-pollyannas",
                "apiUrl": "http://content.guardianapis.com/commentisfree/2014/sep/10/scotland-yes-campaign-snp-pollyannas"
            },
            {
                "webTitle": "The NFL has made you 'need' to watch Ray Rice beat his wife. That's how the cover-up works | Jeb Lund",
                "webPublicationDate": "2014-09-10T11:45:23Z",
                "sectionName": "Comment is free",
                "sectionId": "commentisfree",
                "id": "commentisfree/2014/sep/10/nfl-watch-ray-rice-beat-wife-cover-up",
                "webUrl": "http://www.theguardian.com/commentisfree/2014/sep/10/nfl-watch-ray-rice-beat-wife-cover-up",
                "apiUrl": "http://content.guardianapis.com/commentisfree/2014/sep/10/nfl-watch-ray-rice-beat-wife-cover-up"
            }
        ],
        "editorsPicks": [
            {
                "webTitle": "Salmond’s Scotland won’t be an escape from Tory Britain | Seumas Milne",
                "webPublicationDate": "2014-09-11T05:00:02Z",
                "sectionName": "Comment is free",
                "sectionId": "commentisfree",
                "id": "commentisfree/2014/sep/11/salmond-scotland-no-escape-tory-britain",
                "webUrl": "http://www.theguardian.com/commentisfree/2014/sep/11/salmond-scotland-no-escape-tory-britain",
                "apiUrl": "http://content.guardianapis.com/commentisfree/2014/sep/11/salmond-scotland-no-escape-tory-britain"
            },
            {
                "webTitle": "The Great Naked Celebrity Photo Leak of 2014 is just the beginning | Roxane Gay",
                "webPublicationDate": "2014-09-04T12:30:58Z",
                "sectionName": "Comment is free",
                "sectionId": "commentisfree",
                "id": "commentisfree/2014/sep/01/celebrity-naked-photo-leak-2014-nude-women",
                "webUrl": "http://www.theguardian.com/commentisfree/2014/sep/01/celebrity-naked-photo-leak-2014-nude-women",
                "apiUrl": "http://content.guardianapis.com/commentisfree/2014/sep/01/celebrity-naked-photo-leak-2014-nude-women"
            },
            {
                "webTitle": "Google has sleep pods, Yelp has beer – why don’t we just live at work? | Michael Moran",
                "webPublicationDate": "2014-09-11T10:57:13Z",
                "sectionName": "Comment is free",
                "sectionId": "commentisfree",
                "id": "commentisfree/2014/sep/11/google-sleep-pods-yelp-beer-work-leisure-offices",
                "webUrl": "http://www.theguardian.com/commentisfree/2014/sep/11/google-sleep-pods-yelp-beer-work-leisure-offices",
                "apiUrl": "http://content.guardianapis.com/commentisfree/2014/sep/11/google-sleep-pods-yelp-beer-work-leisure-offices"
            },
            {
                "webTitle": "Why it’s so much harder to think like a Conservative | Roger Scruton",
                "webPublicationDate": "2014-09-10T18:09:46Z",
                "sectionName": "Comment is free",
                "sectionId": "commentisfree",
                "id": "commentisfree/2014/sep/10/why-its-harder-to-think-like-a-conservative",
                "webUrl": "http://www.theguardian.com/commentisfree/2014/sep/10/why-its-harder-to-think-like-a-conservative",
                "apiUrl": "http://content.guardianapis.com/commentisfree/2014/sep/10/why-its-harder-to-think-like-a-conservative"
            }
        ]
    }
}
