{
  "response": {
    "status": "ok",
    "userTier": "developer",
    "total": 18198,
    "startIndex": 1,
    "pageSize": 10,
    "currentPage": 1,
    "pages": 1820,
    "orderBy": "newest",
    "results": [
      "lifeandstyle/interactive/2014/mar/30/live-better",
      "guardian-masterclasses/2015/apr/22/how-to-write-effective-communications-olivia-timbs-writing-course",
      "guardian-masterclasses/2015/may/07/an-introduction-to-writing-family-history-nick-barlay-writing-course",
      "info/2015/jun/24/removed-abc-pm-program-cut-zaky-mallah-interview",
      "guardian-masterclasses/2015/apr/15/using-powerpoint-for-data-visualisation-adam-frost-tobias-frost-digital-course",
      "money/2015/jul/01/virgin-trains-east-coast-accused-stealth-100-per-cent-fare-increase",
      "world/2015/jul/01/france-suspends-two-soldiers-sexual-abuse-allegations-burkina-faso",
      "australia-news/2015/jun/24/abc-chief-mark-scott-forbade-pm-program-to-air-zaky-mallah-interview",
      "live-better-unilever/interactive/live-better-energy-badge",
      "guardian-masterclasses/2015/apr/15/how-to-get-media-coverage-for-your-small-business-janet-murray-media-course"
    ]
  }
}
