{
  "response":{
    "status":"ok",
    "userTier":"free",
    "total":1442171,
    "startIndex":1,
    "pageSize":2,
    "currentPage":1,
    "pages":721086,
    "orderBy":"newest",
    "results":[{
      "id":"world/middle-east-live/2012/feb/22/syria-yemen",
      "sectionId":"world",
      "sectionName":"World news",
      "webPublicationDate":"2012-02-22T08:55:00Z",
      "webTitle":"Journalists reported killed in Syria  \u2013 live updates",
      "webUrl":"http://www.theguardian.com/world/middle-east-live/2012/feb/22/syria-yemen",
      "apiUrl":"http://content.guardianapis.com/world/middle-east-live/2012/feb/22/syria-yemen",
      "fields":{
        "trailText":"<p>Claim of 500 defectors joining Free Syrian Army<br />Last day of Mubarak's trial in Egypt<br />Nine reported dead in Yemen election violence</p>",
        "headline":"Journalists reported killed in Syria \u2013 live updates",
        "showInRelatedContent":"true",
        "lastModified":"2012-02-22T08:56:42Z",
        "hasStoryPackage":"false",
        "standfirst":"Claim of 500 defectors joining Free Syrian Army<br />Last day of Mubarak's trial in Egypt<br />Nine reported dead in Yemen election violence",
        "shortUrl":"http://gu.com/p/35jmv",
        "thumbnail":"http://static.guim.co.uk/sys-images/Guardian/Pix/pictures/2012/2/21/1329868492281/House-in-the-city-of-Homs-002.jpg",
        "commentable":"true",
        "byline":"Brian Whitaker and Haroon Siddique",
        "publication":"theguardian.com",
        "shouldHideAdverts":"false",
        "liveBloggingNow":"true"
      },
      "tags":[{
        "id":"world/middle-east-live",
        "type":"blog",
        "webTitle":"Middle East Live",
        "webUrl":"http://www.theguardian.com/world/middle-east-live",
        "apiUrl":"http://content.guardianapis.com/world/middle-east-live",
        "sectionId":"world",
        "sectionName":"World news"
      },{
        "id":"tone/minutebyminute",
        "type":"tone",
        "webTitle":"Minute by minutes",
        "webUrl":"http://www.theguardian.com/tone/minutebyminute",
        "apiUrl":"http://content.guardianapis.com/tone/minutebyminute"
      },{
        "id":"world/syria",
        "type":"keyword",
        "webTitle":"Syria",
        "webUrl":"http://www.theguardian.com/world/syria",
        "apiUrl":"http://content.guardianapis.com/world/syria",
        "sectionId":"world",
        "sectionName":"World news"
      },{
        "id":"world/yemen",
        "type":"keyword",
        "webTitle":"Yemen",
        "webUrl":"http://www.theguardian.com/world/yemen",
        "apiUrl":"http://content.guardianapis.com/world/yemen",
        "sectionId":"world",
        "sectionName":"World news"
      },{
        "id":"world/egypt",
        "type":"keyword",
        "webTitle":"Egypt",
        "webUrl":"http://www.theguardian.com/world/egypt",
        "apiUrl":"http://content.guardianapis.com/world/egypt",
        "sectionId":"world",
        "sectionName":"World news"
      },{
        "id":"world/bahrain",
        "type":"keyword",
        "webTitle":"Bahrain",
        "webUrl":"http://www.theguardian.com/world/bahrain",
        "apiUrl":"http://content.guardianapis.com/world/bahrain",
        "sectionId":"world",
        "sectionName":"World news"
      },{
        "id":"tone/news",
        "type":"tone",
        "webTitle":"News",
        "webUrl":"http://www.theguardian.com/tone/news",
        "apiUrl":"http://content.guardianapis.com/tone/news"
      },{
        "id":"world/world",
        "type":"keyword",
        "webTitle":"World news",
        "webUrl":"http://www.theguardian.com/world/world",
        "apiUrl":"http://content.guardianapis.com/world/world",
        "sectionId":"world",
        "sectionName":"World news"
      },{
        "id":"world/arab-and-middle-east-protests",
        "type":"keyword",
        "webTitle":"Arab and Middle East unrest",
        "webUrl":"http://www.theguardian.com/world/arab-and-middle-east-protests",
        "apiUrl":"http://content.guardianapis.com/world/arab-and-middle-east-protests",
        "sectionId":"world",
        "sectionName":"World news"
      },{
        "id":"world/middleeast",
        "type":"keyword",
        "webTitle":"Middle East and North Africa",
        "webUrl":"http://www.theguardian.com/world/middleeast",
        "apiUrl":"http://content.guardianapis.com/world/middleeast",
        "sectionId":"world",
        "sectionName":"World news"
      },{
        "id":"tone/blog",
        "type":"tone",
        "webTitle":"Blogposts",
        "webUrl":"http://www.theguardian.com/tone/blog",
        "apiUrl":"http://content.guardianapis.com/tone/blog"
      },{
        "id":"profile/brianwhitaker",
        "type":"contributor",
        "webTitle":"Brian Whitaker",
        "webUrl":"http://www.theguardian.com/profile/brianwhitaker",
        "apiUrl":"http://content.guardianapis.com/profile/brianwhitaker",
        "bio":"<p>Brian Whitaker has done a variety of jobs at the Guardian including, most recently, seven years as Middle East editor. He is currently an editor on Comment is Free. He is the author of <a href=\"http://www.al-bab.com/unspeakablelove/\">Unspeakable Love: Gay and Lesbian Life in the Middle East</a> (Saqi, 2011) and <a href=\"http://www.al-bab.com/whatsreallywrong/\">What's <em>Really</em> Wrong with the Middle East</a> (Saqi, 2009)</p>",
        "bylineImageUrl":"http://static.guim.co.uk/sys-images/Guardian/Pix/contributor/2007/10/03/brian_whitaker_140x140.jpg"
      },{
        "id":"profile/haroonsiddique",
        "type":"contributor",
        "webTitle":"Haroon Siddique",
        "webUrl":"http://www.theguardian.com/profile/haroonsiddique",
        "apiUrl":"http://content.guardianapis.com/profile/haroonsiddique",
        "bio":"<p>Haroon Siddique is a news reporter on the Guardian website. He previously worked for North London institution the Ham&amp;High, and before pursuing his passion for journalism he was a commodity trader in the City</p>",
        "bylineImageUrl":"http://static.guim.co.uk/artsblog/authorpics/haroon_siddique.jpg"
      },{
        "id":"type/article",
        "type":"type",
        "webTitle":"Article",
        "webUrl":"http://www.theguardian.com/articles",
        "apiUrl":"http://content.guardianapis.com/articles"
      }]
    },{
      "id":"politics/2012/feb/22/staff-welfare-work-company-4ae-arrested",
      "sectionId":"politics",
      "sectionName":"Politics",
      "webPublicationDate":"2012-02-22T08:54:35Z",
      "webTitle":"Four former staff at welfare-to-work company A4e arrested in fraud inquiry",
      "webUrl":"http://www.theguardian.com/politics/2012/feb/22/staff-welfare-work-company-4ae-arrested",
      "apiUrl":"http://content.guardianapis.com/politics/2012/feb/22/staff-welfare-work-company-4ae-arrested",
      "fields":{
        "trailText":"Two men and two women arrested and bailed by police investigating fraud claims in government's work programme",
        "headline":"Four former staff at welfare-to-work company A4e arrested in fraud inquiry",
        "showInRelatedContent":"true",
        "lastModified":"2012-02-22T08:54:35Z",
        "hasStoryPackage":"false",
        "standfirst":"Two men and two women arrested and bailed by police investigating fraud claims in government's work programme",
        "shortUrl":"http://gu.com/p/35jm3",
        "thumbnail":"http://static.guim.co.uk/sys-images/Guardian/About/General/2012/2/22/1329900602337/CBI-Conference-003.jpg",
        "commentable":"false",
        "byline":"Press Association",
        "publication":"The Guardian",
        "newspaperEditionDate":"2012-02-23",
        "shouldHideAdverts":"false",
        "liveBloggingNow":"false"
      },
      "tags":[{
        "id":"politics/welfare",
        "type":"keyword",
        "webTitle":"Welfare",
        "webUrl":"http://www.theguardian.com/politics/welfare",
        "apiUrl":"http://content.guardianapis.com/politics/welfare",
        "sectionId":"politics",
        "sectionName":"Politics"
      },{
        "id":"politics/politics",
        "type":"keyword",
        "webTitle":"Politics",
        "webUrl":"http://www.theguardian.com/politics/politics",
        "apiUrl":"http://content.guardianapis.com/politics/politics",
        "sectionId":"politics",
        "sectionName":"Politics"
      },{
        "id":"society/unemployment",
        "type":"keyword",
        "webTitle":"Unemployment",
        "webUrl":"http://www.theguardian.com/society/unemployment",
        "apiUrl":"http://content.guardianapis.com/society/unemployment",
        "sectionId":"society",
        "sectionName":"Society"
      },{
        "id":"society/society",
        "type":"keyword",
        "webTitle":"Society",
        "webUrl":"http://www.theguardian.com/society/society",
        "apiUrl":"http://content.guardianapis.com/society/society",
        "sectionId":"society",
        "sectionName":"Society"
      },{
        "id":"uk/uk",
        "type":"keyword",
        "webTitle":"UK news",
        "webUrl":"http://www.theguardian.com/uk/uk",
        "apiUrl":"http://content.guardianapis.com/uk/uk",
        "sectionId":"uk",
        "sectionName":"UK news"
      },{
        "id":"tone/news",
        "type":"tone",
        "webTitle":"News",
        "webUrl":"http://www.theguardian.com/tone/news",
        "apiUrl":"http://content.guardianapis.com/tone/news"
      },{
        "id":"theguardian/mainsection/uknews",
        "type":"newspaper-book-section",
        "webTitle":"UK news",
        "webUrl":"http://www.theguardian.com/theguardian/mainsection/uknews",
        "apiUrl":"http://content.guardianapis.com/theguardian/mainsection/uknews",
        "sectionId":"uk",
        "sectionName":"UK news"
      },{
        "id":"theguardian/mainsection",
        "type":"newspaper-book",
        "webTitle":"Main section",
        "webUrl":"http://www.theguardian.com/theguardian/mainsection",
        "apiUrl":"http://content.guardianapis.com/theguardian/mainsection",
        "sectionId":"news",
        "sectionName":"News"
      },{
        "id":"type/article",
        "type":"type",
        "webTitle":"Article",
        "webUrl":"http://www.theguardian.com/articles",
        "apiUrl":"http://content.guardianapis.com/articles"
      },{
        "id":"publication/theguardian",
        "type":"publication",
        "webTitle":"The Guardian",
        "webUrl":"http://www.theguardian.com/theguardian/all",
        "apiUrl":"http://content.guardianapis.com/theguardian/all",
        "sectionId":"theguardian",
        "sectionName":"From the Guardian"
      }]
    }]
  }
}